Final Project Report
…
#further data inspection
library(skimr)
x_train_tbl_skim = partition(skim(x_train_tbl))
names(x_train_tbl_skim)

## [1] "logical" "numeric"

x_train_tbl_skim$numeric %>% tibble()

## # A tibble: 1,214 x 12
##    skim_variable screenName     n_missing complete_rate  mean    sd    p0   p25
##    <chr>         <chr>              <int>         <dbl> <dbl> <dbl> <dbl> <dbl>
##  1 favoriteCount _arorarohit_           0             1   20     0     20   20 
##  2 favoriteCount _HeyMikeC              0             1    0     0      0    0 
##  3 favoriteCount _its_infinite          0             1    3    NA      3    3 
##  4 favoriteCount _krissy_lynne          0             1    0     0      0    0 
##  5 favoriteCount _Nick_Ackerman         0             1   50    NA     50   50 
##  6 favoriteCount _ted_hunt              0             1    4    NA      4    4 
##  7 favoriteCount _vanes_f               0             1    1    NA      1    1 
##  8 favoriteCount 20190717ai             0             1    2    NA      2    2 
##  9 favoriteCount 9afan                  0             1    0    NA      0    0 
## 10 favoriteCount 9techeleven            0             1  668.  526.    61  516.
## # ... with 1,204 more rows, and 4 more variables: p50 <dbl>, p75 <dbl>,
## #   p100 <dbl>, hist <chr>
…
